{
  "project_info": {
    "project_number": "840704295874",
    "firebase_url": "https://ethera-276ee.firebaseio.com",
    "project_id": "ethera-276ee",
    "storage_bucket": "ethera-276ee.appspot.com"
  },
  "client": [
    {
      "client_info": {
        "mobilesdk_app_id": "1:840704295874:android:9c6826fd7bbdd950",
        "android_client_info": {
          "package_name": "com.etheraapp"
        }
      },
      "oauth_client": [
        {
          "client_id": "840704295874-1cfda0ijm2n7lvbmsqlt8ls5mc5vhb2p.apps.googleusercontent.com",
          "client_type": 1,
          "android_info": {
            "package_name": "com.etheraapp",
            "certificate_hash": "9853c22cc36cb6c7476125fdafd57f44af0834aa"
          }
        },
        {
          "client_id": "840704295874-2ur8qcq85ctub8nhinjg3lnv09j9bm7o.apps.googleusercontent.com",
          "client_type": 1,
          "android_info": {
            "package_name": "com.etheraapp",
            "certificate_hash": "eb75456e54c30c97d046339c2676de06f9efad60"
          }
        },
        {
          "client_id": "840704295874-53uo22kq20438ovghqu6f199kmgore91.apps.googleusercontent.com",
          "client_type": 3
        }
      ],
      "api_key": [
        {
          "current_key": "AIzaSyBzJl1O6oGOZuUe-aUPd1MRap93ksJWLP8"
        }
      ],
      "services": {
        "analytics_service": {
          "status": 1
        },
        "appinvite_service": {
          "status": 2,
          "other_platform_oauth_client": [
            {
              "client_id": "840704295874-53uo22kq20438ovghqu6f199kmgore91.apps.googleusercontent.com",
              "client_type": 3
            },
            {
              "client_id": "840704295874-tf12t2baokj604k1nh6tfr1qjs185hb1.apps.googleusercontent.com",
              "client_type": 2,
              "ios_info": {
                "bundle_id": "org.reactjs.native.example.eTheraApp"
              }
            }
          ]
        },
        "ads_service": {
          "status": 2
        }
      }
    },
    {
      "client_info": {
        "mobilesdk_app_id": "1:840704295874:android:b551add593e98da2",
        "android_client_info": {
          "package_name": "com.hellogoogleplus"
        }
      },
      "oauth_client": [
        {
          "client_id": "840704295874-8mmr03lp28e8igp21mvo9ir111oblpke.apps.googleusercontent.com",
          "client_type": 1,
          "android_info": {
            "package_name": "com.hellogoogleplus",
            "certificate_hash": "9853c22cc36cb6c7476125fdafd57f44af0834aa"
          }
        },
        {
          "client_id": "840704295874-53uo22kq20438ovghqu6f199kmgore91.apps.googleusercontent.com",
          "client_type": 3
        }
      ],
      "api_key": [
        {
          "current_key": "AIzaSyBzJl1O6oGOZuUe-aUPd1MRap93ksJWLP8"
        }
      ],
      "services": {
        "analytics_service": {
          "status": 1
        },
        "appinvite_service": {
          "status": 2,
          "other_platform_oauth_client": [
            {
              "client_id": "840704295874-53uo22kq20438ovghqu6f199kmgore91.apps.googleusercontent.com",
              "client_type": 3
            },
            {
              "client_id": "840704295874-tf12t2baokj604k1nh6tfr1qjs185hb1.apps.googleusercontent.com",
              "client_type": 2,
              "ios_info": {
                "bundle_id": "org.reactjs.native.example.eTheraApp"
              }
            }
          ]
        },
        "ads_service": {
          "status": 2
        }
      }
    }
  ],
  "configuration_version": "1"
}